{
  "project_info": {
    "project_number": "65240884235",
    "firebase_url": "https://whyentry.firebaseio.com",
    "project_id": "whyentry",
    "storage_bucket": "whyentry.appspot.com"
  },
  "client": [
    {
      "client_info": {
        "mobilesdk_app_id": "1:65240884235:android:7642c273d61db40b",
        "android_client_info": {
          "package_name": "in.mondays.parking"
        }
      },
      "oauth_client": [],
      "api_key": [
        {
          "current_key": "AIzaSyAl1HNpEOV48C78ER4P0oaaa5n2-z1Ei1M"
        }
      ],
      "services": {
        "analytics_service": {
          "status": 1
        },
        "appinvite_service": {
          "status": 1,
          "other_platform_oauth_client": []
        },
        "ads_service": {
          "status": 2
        }
      }
    },
    {
      "client_info": {
        "mobilesdk_app_id": "1:65240884235:android:414a49e592aa176f",
        "android_client_info": {
          "package_name": "team.why.entry"
        }
      },
      "oauth_client": [],
      "api_key": [
        {
          "current_key": "AIzaSyAl1HNpEOV48C78ER4P0oaaa5n2-z1Ei1M"
        }
      ],
      "services": {
        "analytics_service": {
          "status": 1
        },
        "appinvite_service": {
          "status": 1,
          "other_platform_oauth_client": []
        },
        "ads_service": {
          "status": 2
        }
      }
    },
    {
      "client_info": {
        "mobilesdk_app_id": "1:65240884235:android:f1a8e48115718636",
        "android_client_info": {
          "package_name": "team.why.hostel"
        }
      },
      "oauth_client": [],
      "api_key": [
        {
          "current_key": "AIzaSyAl1HNpEOV48C78ER4P0oaaa5n2-z1Ei1M"
        }
      ],
      "services": {
        "analytics_service": {
          "status": 1
        },
        "appinvite_service": {
          "status": 1,
          "other_platform_oauth_client": []
        },
        "ads_service": {
          "status": 2
        }
      }
    },
    {
      "client_info": {
        "mobilesdk_app_id": "1:65240884235:android:81d46ae44bbef36f",
        "android_client_info": {
          "package_name": "team.why.nfc"
        }
      },
      "oauth_client": [],
      "api_key": [
        {
          "current_key": "AIzaSyAl1HNpEOV48C78ER4P0oaaa5n2-z1Ei1M"
        }
      ],
      "services": {
        "analytics_service": {
          "status": 1
        },
        "appinvite_service": {
          "status": 1,
          "other_platform_oauth_client": []
        },
        "ads_service": {
          "status": 2
        }
      }
    },
    {
      "client_info": {
        "mobilesdk_app_id": "1:65240884235:android:8850e162fa0dbdbe",
        "android_client_info": {
          "package_name": "team.why.safechild"
        }
      },
      "oauth_client": [],
      "api_key": [
        {
          "current_key": "AIzaSyAl1HNpEOV48C78ER4P0oaaa5n2-z1Ei1M"
        }
      ],
      "services": {
        "analytics_service": {
          "status": 1
        },
        "appinvite_service": {
          "status": 1,
          "other_platform_oauth_client": []
        },
        "ads_service": {
          "status": 2
        }
      }
    },
    {
      "client_info": {
        "mobilesdk_app_id": "1:65240884235:android:2eb3590cb1dd92fc",
        "android_client_info": {
          "package_name": "team.why.selfentry"
        }
      },
      "oauth_client": [],
      "api_key": [
        {
          "current_key": "AIzaSyAl1HNpEOV48C78ER4P0oaaa5n2-z1Ei1M"
        }
      ],
      "services": {
        "analytics_service": {
          "status": 1
        },
        "appinvite_service": {
          "status": 1,
          "other_platform_oauth_client": []
        },
        "ads_service": {
          "status": 2
        }
      }
    },
    {
      "client_info": {
        "mobilesdk_app_id": "1:65240884235:android:223a3477b9f66fa4",
        "android_client_info": {
          "package_name": "team.why.stops"
        }
      },
      "oauth_client": [],
      "api_key": [
        {
          "current_key": "AIzaSyAl1HNpEOV48C78ER4P0oaaa5n2-z1Ei1M"
        }
      ],
      "services": {
        "analytics_service": {
          "status": 1
        },
        "appinvite_service": {
          "status": 1,
          "other_platform_oauth_client": []
        },
        "ads_service": {
          "status": 2
        }
      }
    },
    {
      "client_info": {
        "mobilesdk_app_id": "1:65240884235:android:41c37398ace0de0e",
        "android_client_info": {
          "package_name": "team.why.tools"
        }
      },
      "oauth_client": [],
      "api_key": [
        {
          "current_key": "AIzaSyAl1HNpEOV48C78ER4P0oaaa5n2-z1Ei1M"
        }
      ],
      "services": {
        "analytics_service": {
          "status": 1
        },
        "appinvite_service": {
          "status": 1,
          "other_platform_oauth_client": []
        },
        "ads_service": {
          "status": 2
        }
      }
    },
    {
      "client_info": {
        "mobilesdk_app_id": "1:65240884235:android:7e3e962c9979bacc",
        "android_client_info": {
          "package_name": "team.why.verify"
        }
      },
      "oauth_client": [],
      "api_key": [
        {
          "current_key": "AIzaSyAl1HNpEOV48C78ER4P0oaaa5n2-z1Ei1M"
        }
      ],
      "services": {
        "analytics_service": {
          "status": 1
        },
        "appinvite_service": {
          "status": 1,
          "other_platform_oauth_client": []
        },
        "ads_service": {
          "status": 2
        }
      }
    },
    {
      "client_info": {
        "mobilesdk_app_id": "1:65240884235:android:8f618e9c9f450617",
        "android_client_info": {
          "package_name": "versionx.app"
        }
      },
      "oauth_client": [],
      "api_key": [
        {
          "current_key": "AIzaSyAl1HNpEOV48C78ER4P0oaaa5n2-z1Ei1M"
        }
      ],
      "services": {
        "analytics_service": {
          "status": 1
        },
        "appinvite_service": {
          "status": 1,
          "other_platform_oauth_client": []
        },
        "ads_service": {
          "status": 2
        }
      }
    },
    {
      "client_info": {
        "mobilesdk_app_id": "1:65240884235:android:62d45034be690221",
        "android_client_info": {
          "package_name": "versionx.autoEntry"
        }
      },
      "oauth_client": [],
      "api_key": [
        {
          "current_key": "AIzaSyAl1HNpEOV48C78ER4P0oaaa5n2-z1Ei1M"
        }
      ],
      "services": {
        "analytics_service": {
          "status": 1
        },
        "appinvite_service": {
          "status": 1,
          "other_platform_oauth_client": []
        },
        "ads_service": {
          "status": 2
        }
      }
    },
    {
      "client_info": {
        "mobilesdk_app_id": "1:65240884235:android:4b39342284540956",
        "android_client_info": {
          "package_name": "versionx.backEntry"
        }
      },
      "oauth_client": [],
      "api_key": [
        {
          "current_key": "AIzaSyAl1HNpEOV48C78ER4P0oaaa5n2-z1Ei1M"
        }
      ],
      "services": {
        "analytics_service": {
          "status": 1
        },
        "appinvite_service": {
          "status": 1,
          "other_platform_oauth_client": []
        },
        "ads_service": {
          "status": 2
        }
      }
    },
    {
      "client_info": {
        "mobilesdk_app_id": "1:65240884235:android:5adbef6ef2f1b46b",
        "android_client_info": {
          "package_name": "versionx.complaintEntry"
        }
      },
      "oauth_client": [],
      "api_key": [
        {
          "current_key": "AIzaSyAl1HNpEOV48C78ER4P0oaaa5n2-z1Ei1M"
        }
      ],
      "services": {
        "analytics_service": {
          "status": 1
        },
        "appinvite_service": {
          "status": 1,
          "other_platform_oauth_client": []
        },
        "ads_service": {
          "status": 2
        }
      }
    },
    {
      "client_info": {
        "mobilesdk_app_id": "1:65240884235:android:97cdd9c1ca028031",
        "android_client_info": {
          "package_name": "versionx.entryPoint"
        }
      },
      "oauth_client": [],
      "api_key": [
        {
          "current_key": "AIzaSyAl1HNpEOV48C78ER4P0oaaa5n2-z1Ei1M"
        }
      ],
      "services": {
        "analytics_service": {
          "status": 1
        },
        "appinvite_service": {
          "status": 1,
          "other_platform_oauth_client": []
        },
        "ads_service": {
          "status": 2
        }
      }
    },
    {
      "client_info": {
        "mobilesdk_app_id": "1:65240884235:android:ac8b2e73bbdbd933",
        "android_client_info": {
          "package_name": "versionx.entryToken"
        }
      },
      "oauth_client": [],
      "api_key": [
        {
          "current_key": "AIzaSyAl1HNpEOV48C78ER4P0oaaa5n2-z1Ei1M"
        }
      ],
      "services": {
        "analytics_service": {
          "status": 1
        },
        "appinvite_service": {
          "status": 1,
          "other_platform_oauth_client": []
        },
        "ads_service": {
          "status": 2
        }
      }
    },
    {
      "client_info": {
        "mobilesdk_app_id": "1:65240884235:android:df3120224164fb9a",
        "android_client_info": {
          "package_name": "versionx.entryTools"
        }
      },
      "oauth_client": [],
      "api_key": [
        {
          "current_key": "AIzaSyAl1HNpEOV48C78ER4P0oaaa5n2-z1Ei1M"
        }
      ],
      "services": {
        "analytics_service": {
          "status": 1
        },
        "appinvite_service": {
          "status": 1,
          "other_platform_oauth_client": []
        },
        "ads_service": {
          "status": 2
        }
      }
    },
    {
      "client_info": {
        "mobilesdk_app_id": "1:65240884235:android:967a105efa12cbdc",
        "android_client_info": {
          "package_name": "versionx.gps"
        }
      },
      "oauth_client": [],
      "api_key": [
        {
          "current_key": "AIzaSyAl1HNpEOV48C78ER4P0oaaa5n2-z1Ei1M"
        }
      ],
      "services": {
        "analytics_service": {
          "status": 1
        },
        "appinvite_service": {
          "status": 1,
          "other_platform_oauth_client": []
        },
        "ads_service": {
          "status": 2
        }
      }
    },
    {
      "client_info": {
        "mobilesdk_app_id": "1:65240884235:android:7f1def5af8a30558",
        "android_client_info": {
          "package_name": "versionx.guardpatrol"
        }
      },
      "oauth_client": [],
      "api_key": [
        {
          "current_key": "AIzaSyAl1HNpEOV48C78ER4P0oaaa5n2-z1Ei1M"
        }
      ],
      "services": {
        "analytics_service": {
          "status": 1
        },
        "appinvite_service": {
          "status": 1,
          "other_platform_oauth_client": []
        },
        "ads_service": {
          "status": 2
        }
      }
    },
    {
      "client_info": {
        "mobilesdk_app_id": "1:65240884235:android:48a0575654212b63",
        "android_client_info": {
          "package_name": "versionx.hostelEntry"
        }
      },
      "oauth_client": [],
      "api_key": [
        {
          "current_key": "AIzaSyAl1HNpEOV48C78ER4P0oaaa5n2-z1Ei1M"
        }
      ],
      "services": {
        "analytics_service": {
          "status": 1
        },
        "appinvite_service": {
          "status": 1,
          "other_platform_oauth_client": []
        },
        "ads_service": {
          "status": 2
        }
      }
    },
    {
      "client_info": {
        "mobilesdk_app_id": "1:65240884235:android:4f38a78ec28f7734",
        "android_client_info": {
          "package_name": "versionx.parking"
        }
      },
      "oauth_client": [],
      "api_key": [
        {
          "current_key": "AIzaSyAl1HNpEOV48C78ER4P0oaaa5n2-z1Ei1M"
        }
      ],
      "services": {
        "analytics_service": {
          "status": 1
        },
        "appinvite_service": {
          "status": 1,
          "other_platform_oauth_client": []
        },
        "ads_service": {
          "status": 2
        }
      }
    },
    {
      "client_info": {
        "mobilesdk_app_id": "1:65240884235:android:2cfb466448068910",
        "android_client_info": {
          "package_name": "versionx.safeChild"
        }
      },
      "oauth_client": [],
      "api_key": [
        {
          "current_key": "AIzaSyAl1HNpEOV48C78ER4P0oaaa5n2-z1Ei1M"
        }
      ],
      "services": {
        "analytics_service": {
          "status": 1
        },
        "appinvite_service": {
          "status": 1,
          "other_platform_oauth_client": []
        },
        "ads_service": {
          "status": 2
        }
      }
    },
    {
      "client_info": {
        "mobilesdk_app_id": "1:65240884235:android:61f2c615f5ae4cf7",
        "android_client_info": {
          "package_name": "versionx.selfentry"
        }
      },
      "oauth_client": [],
      "api_key": [
        {
          "current_key": "AIzaSyAl1HNpEOV48C78ER4P0oaaa5n2-z1Ei1M"
        }
      ],
      "services": {
        "analytics_service": {
          "status": 1
        },
        "appinvite_service": {
          "status": 1,
          "other_platform_oauth_client": []
        },
        "ads_service": {
          "status": 2
        }
      }
    },
    {
      "client_info": {
        "mobilesdk_app_id": "1:65240884235:android:265bfebabf6bdf33",
        "android_client_info": {
          "package_name": "versionx.stops"
        }
      },
      "oauth_client": [],
      "api_key": [
        {
          "current_key": "AIzaSyAl1HNpEOV48C78ER4P0oaaa5n2-z1Ei1M"
        }
      ],
      "services": {
        "analytics_service": {
          "status": 1
        },
        "appinvite_service": {
          "status": 1,
          "other_platform_oauth_client": []
        },
        "ads_service": {
          "status": 2
        }
      }
    },
    {
      "client_info": {
        "mobilesdk_app_id": "1:65240884235:android:e5907a8faece8df3",
        "android_client_info": {
          "package_name": "versionx.verifyEntry"
        }
      },
      "oauth_client": [],
      "api_key": [
        {
          "current_key": "AIzaSyAl1HNpEOV48C78ER4P0oaaa5n2-z1Ei1M"
        }
      ],
      "services": {
        "analytics_service": {
          "status": 1
        },
        "appinvite_service": {
          "status": 1,
          "other_platform_oauth_client": []
        },
        "ads_service": {
          "status": 2
        }
      }
    }
  ],
  "configuration_version": "1"
}